^Z:\ACG\ACG\ASSIGNMENT1\SRC\PLOTTER\MAIN.CPP
Z:\ACG\ACG\ASSIGNMENT1\SRC\PLOTTER\DEBUG\VC140.PDB
Z:\ACG\ACG\ASSIGNMENT1\SRC\PLOTTER\DEBUG\VC140.IDB
Z:\ACG\ACG\ASSIGNMENT1\SRC\PLOTTER\DEBUG\MAIN.OBJ
